// Les Anges dans nos campagnes
180


| E4 E4 E4 E4 G4 | G4 F4 E4 C4 | E4 E4 D4 E4 E4 G4 | G4 F4 E4 |
| _  _  _  ,  ,  | _  _  _  _  | _  ,  ,  _  ,  ,  | _  _  2  |


| E4 E4 E4 E4 G4 | G4 F4 E4 C4 | E4 E4 D4 E4 E4 G4 | G4 F4 E4 |
| _  _  _  ,  ,  | _  _  _  _  | _  ,  ,  _  ,  ,  | _  _  2  |


| G4 A4 G4 F4 E4 | F4 G4 F4 E4 D4 | E4 F4 E4 D4 C4 | D4 D4 G4 |
| X  X  X  X  X  | X  X  X  X  X  | X  X  X  X  X  | X  X  G3 |
| 2  ,  ,  ,  ,  | 2  ,  ,  ,  ,  | 2  ,  ,  ,  ,  | _  _  2  |


| C4 D4 E4 F4 | E4 D4 |
| _  _  _  _  | 2  2  |


| G4 A4 G4 F4 E4 | F4 G4 F4 E4 D4 | E4 F4 E4 D4 C4 | D4 D4 G4 |
| X  X  X  X  X  | X  X  X  X  X  | X  X  X  X  X  | X  X  G3 |
| 2  ,  ,  ,  ,  | 2  ,  ,  ,  ,  | 2  ,  ,  ,  ,  | _  _  2  |


| C4 D4 E4 F4 | E4 D4 C4 | C4 |
| _  _  _  _  | 2  _  _  | 4  |
